{
  "Evolve.Driver": "MySQL.Data",
  "Evolve.ConnectionString": "Server=localhost;Port=3306;Database=CursoRESTcomASPeDocker;Uid=CursoRESTcomASPeDocker;Pwd=SenhaPadrao@123;SslMode=none;",
  "Evolve.Locations": "db",
  "Evolve.Command": "migrate",
  "Evolve.Placeholder.table4": "table_4"
}